{
  "_embedded" : {
    "entityModels" : [ {
      "id" : 251,
      "minCtc" : 0.0,
      "maxCtc" : 1403000.0,
      "payType" : "PER_ANNUM",
      "internWithPrePlacement" : null,
      "skillsRequired" : null,
      "jobType" : "FULL_TIME",
      "noOfRounds" : null,
      "jobTitle" : "ARM Campus Hiring  2023 Batch",
      "jobStatus" : "IN_PROGRESS",
      "jobPostedDate" : "2022-08-19 16:07:34",
      "jobApplyBy" : "2022-08-21 00:00:00",
      "hiringStartDate" : "2022-08-21 00:00:00",
      "location" : "Bangalore",
      "duration" : null,
      "jobTag" : "Engineering",
      "workType" : "REGULAR",
      "noOfOpenings" : "29",
      "incentives" : [ ],
      "stipendType" : "FIXED",
      "jobStartDate" : null,
      "companyId" : 183,
      "companyName" : "ARM",
      "webSiteLink" : "www.arm.com",
      "imagePath" : "",
      "studentSearchEnum" : "ALL_STUDENTS_WITH_POLICY",
      "respectPlacementPolicy" : true,
      "respectJobOffer" : true,
      "isMassRecruiting" : false,
      "appliedCount" : 551,
      "isPublished" : true,
      "createdBy" : "kb_dainy",
      "createdDate" : "2022-08-19 16:07:34",
      "lastModifiedBy" : "kb_dainy",
      "lastModifiedDate" : "2022-08-19 16:07:34",
      "genders" : [ "MALE", "FEMALE" ],
      "batchPassedOutYear" : [ ],
      "jobApplyTime" : "10:00:00",
      "categoryId" : 3,
      "jobStatusMap" : {
        "IN_PROGRESS" : "IN_PROGRESS",
        "CLOSED" : "CLOSED",
        "YET_TO_OPEN" : "YET_TO_OPEN"
      },
      "jobTypeMap" : {
        "INTERN" : "INTERN",
        "Internship With Pre Placement Offer" : "INTERNSHIP_WITH_FULL_TIME",
        "FULL_TIME" : "FULL_TIME",
        "CONTRACT_TO_HIRE" : "CONTRACT_TO_HIRE"
      },
      "stipendTypeMap" : {
        "Performance Based" : "PERFORMANCE_BASED",
        "Between" : "BETWEEN",
        "Unpaid" : "UNPAID",
        "Fixed" : "FIXED"
      },
      "_links" : {
        "self" : {
          "href" : "https://app.haveloc.com/brokerage/jobViews/251"
        },
        "delete" : {
          "href" : "https://app.haveloc.com/brokerage/jobs/251"
        },
        "save" : {
          "href" : "https://app.haveloc.com/brokerage/jobs"
        },
        "all" : {
          "href" : "https://app.haveloc.com/brokerage/jobSubViews?respectConfigProp=true"
        },
        "companyLink" : {
          "href" : "https://app.haveloc.com/brokerage/companies/183"
        },
        "jobFormLink" : {
          "href" : "https://app.haveloc.com/brokerage/downloadJobForm/jobId/251"
        },
        "policy-category-link" : {
          "href" : "https://app.haveloc.com/brokerage/policyCat/3"
        }
      }
    }, {
      "id" : 250,
      "minCtc" : 0.0,
      "maxCtc" : 500000.0,
      "payType" : "PER_ANNUM",
      "internWithPrePlacement" : null,
      "skillsRequired" : null,
      "jobType" : "FULL_TIME",
      "noOfRounds" : 3,
      "jobTitle" : "Finzly Development JAVA with framework",
      "jobStatus" : "IN_PROGRESS",
      "jobPostedDate" : "2022-08-19 15:49:41",
      "jobApplyBy" : "2022-08-20 00:00:00",
      "hiringStartDate" : null,
      "location" : "Chennai/Pune",
      "duration" : null,
      "jobTag" : null,
      "workType" : "REGULAR",
      "noOfOpenings" : null,
      "incentives" : [ ],
      "stipendType" : "FIXED",
      "jobStartDate" : null,
      "companyId" : 182,
      "companyName" : "Finzly",
      "webSiteLink" : "https://finzly.com/",
      "imagePath" : "",
      "studentSearchEnum" : "ALL_STUDENTS_WITH_POLICY",
      "respectPlacementPolicy" : true,
      "respectJobOffer" : true,
      "isMassRecruiting" : false,
      "appliedCount" : 259,
      "isPublished" : true,
      "createdBy" : "bhruguj",
      "createdDate" : "2022-08-19 15:49:41",
      "lastModifiedBy" : "bhruguj",
      "lastModifiedDate" : "2022-08-19 15:49:41",
      "genders" : [ ],
      "batchPassedOutYear" : [ ],
      "jobApplyTime" : "20:30:00",
      "categoryId" : 2,
      "jobStatusMap" : {
        "IN_PROGRESS" : "IN_PROGRESS",
        "CLOSED" : "CLOSED",
        "YET_TO_OPEN" : "YET_TO_OPEN"
      },
      "jobTypeMap" : {
        "INTERN" : "INTERN",
        "Internship With Pre Placement Offer" : "INTERNSHIP_WITH_FULL_TIME",
        "FULL_TIME" : "FULL_TIME",
        "CONTRACT_TO_HIRE" : "CONTRACT_TO_HIRE"
      },
      "stipendTypeMap" : {
        "Performance Based" : "PERFORMANCE_BASED",
        "Between" : "BETWEEN",
        "Unpaid" : "UNPAID",
        "Fixed" : "FIXED"
      },
      "_links" : {
        "self" : {
          "href" : "https://app.haveloc.com/brokerage/jobViews/250"
        },
        "delete" : {
          "href" : "https://app.haveloc.com/brokerage/jobs/250"
        },
        "save" : {
          "href" : "https://app.haveloc.com/brokerage/jobs"
        },
        "all" : {
          "href" : "https://app.haveloc.com/brokerage/jobSubViews?respectConfigProp=true"
        },
        "companyLink" : {
          "href" : "https://app.haveloc.com/brokerage/companies/182"
        },
        "jobFormLink" : {
          "href" : "https://app.haveloc.com/brokerage/downloadJobForm/jobId/250"
        },
        "policy-category-link" : {
          "href" : "https://app.haveloc.com/brokerage/policyCat/2"
        }
      }
    }, {
      "id" : 249,
      "minCtc" : 0.0,
      "maxCtc" : 1100000.0,
      "payType" : "PER_ANNUM",
      "internWithPrePlacement" : null,
      "skillsRequired" : null,
      "jobType" : "FULL_TIME",
      "noOfRounds" : 3,
      "jobTitle" : "IBM Diversity Drive 2023",
      "jobStatus" : "IN_PROGRESS",
      "jobPostedDate" : "2022-08-19 13:53:30",
      "jobApplyBy" : "2022-08-25 00:00:00",
      "hiringStartDate" : null,
      "location" : "NA",
      "duration" : null,
      "jobTag" : null,
      "workType" : "REGULAR",
      "noOfOpenings" : null,
      "incentives" : [ ],
      "stipendType" : "FIXED",
      "jobStartDate" : null,
      "companyId" : 128,
      "companyName" : "IBM",
      "webSiteLink" : "https://www.ibm.com/",
      "imagePath" : "",
      "studentSearchEnum" : "STUDENTS_NOT_OFFERED",
      "respectPlacementPolicy" : true,
      "respectJobOffer" : true,
      "isMassRecruiting" : false,
      "appliedCount" : 31,
      "isPublished" : true,
      "createdBy" : "bhruguj",
      "createdDate" : "2022-08-19 13:53:30",
      "lastModifiedBy" : "bhruguj",
      "lastModifiedDate" : "2022-08-19 13:53:30",
      "genders" : [ "FEMALE" ],
      "batchPassedOutYear" : [ ],
      "jobApplyTime" : "09:00:00",
      "categoryId" : 4,
      "jobStatusMap" : {
        "IN_PROGRESS" : "IN_PROGRESS",
        "CLOSED" : "CLOSED",
        "YET_TO_OPEN" : "YET_TO_OPEN"
      },
      "jobTypeMap" : {
        "INTERN" : "INTERN",
        "Internship With Pre Placement Offer" : "INTERNSHIP_WITH_FULL_TIME",
        "FULL_TIME" : "FULL_TIME",
        "CONTRACT_TO_HIRE" : "CONTRACT_TO_HIRE"
      },
      "stipendTypeMap" : {
        "Performance Based" : "PERFORMANCE_BASED",
        "Between" : "BETWEEN",
        "Unpaid" : "UNPAID",
        "Fixed" : "FIXED"
      },
      "_links" : {
        "self" : {
          "href" : "https://app.haveloc.com/brokerage/jobViews/249"
        },
        "delete" : {
          "href" : "https://app.haveloc.com/brokerage/jobs/249"
        },
        "save" : {
          "href" : "https://app.haveloc.com/brokerage/jobs"
        },
        "all" : {
          "href" : "https://app.haveloc.com/brokerage/jobSubViews?respectConfigProp=true"
        },
        "companyLink" : {
          "href" : "https://app.haveloc.com/brokerage/companies/128"
        },
        "jobFormLink" : {
          "href" : "https://app.haveloc.com/brokerage/downloadJobForm/jobId/249"
        },
        "policy-category-link" : {
          "href" : "https://app.haveloc.com/brokerage/policyCat/4"
        }
      }
    }, {
      "id" : 186,
      "minCtc" : 700000.0,
      "maxCtc" : 800000.0,
      "payType" : "PER_ANNUM",
      "internWithPrePlacement" : null,
      "skillsRequired" : null,
      "jobType" : "FULL_TIME",
      "noOfRounds" : 3,
      "jobTitle" : "Elektrobit India Pvt.Ltd. for B.Tech/ M.Tech - 2023 batch ",
      "jobStatus" : "IN_PROGRESS",
      "jobPostedDate" : "2022-07-13 16:46:17",
      "jobApplyBy" : "2022-07-17 00:00:00",
      "hiringStartDate" : "2022-07-20 00:00:00",
      "location" : "Banglore",
      "duration" : null,
      "jobTag" : "Automobile Engineering",
      "workType" : "REGULAR",
      "noOfOpenings" : "96",
      "incentives" : [ ],
      "stipendType" : "BETWEEN",
      "jobStartDate" : null,
      "companyId" : 108,
      "companyName" : "Elektrobit Automotive",
      "webSiteLink" : "https://www.elektrobit.com",
      "imagePath" : "",
      "studentSearchEnum" : "STUDENTS_NOT_OFFERED",
      "respectPlacementPolicy" : true,
      "respectJobOffer" : true,
      "isMassRecruiting" : false,
      "appliedCount" : 1153,
      "isPublished" : true,
      "createdBy" : "kb_dainy",
      "createdDate" : "2022-07-13 16:46:17",
      "lastModifiedBy" : "kb_dainy",
      "lastModifiedDate" : "2022-08-19 12:48:07",
      "genders" : [ "MALE", "FEMALE" ],
      "batchPassedOutYear" : [ ],
      "jobApplyTime" : "17:00:00",
      "categoryId" : 4,
      "jobStatusMap" : {
        "IN_PROGRESS" : "IN_PROGRESS",
        "CLOSED" : "CLOSED",
        "YET_TO_OPEN" : "YET_TO_OPEN"
      },
      "jobTypeMap" : {
        "INTERN" : "INTERN",
        "Internship With Pre Placement Offer" : "INTERNSHIP_WITH_FULL_TIME",
        "FULL_TIME" : "FULL_TIME",
        "CONTRACT_TO_HIRE" : "CONTRACT_TO_HIRE"
      },
      "stipendTypeMap" : {
        "Performance Based" : "PERFORMANCE_BASED",
        "Between" : "BETWEEN",
        "Unpaid" : "UNPAID",
        "Fixed" : "FIXED"
      },
      "_links" : {
        "self" : {
          "href" : "https://app.haveloc.com/brokerage/jobViews/186"
        },
        "delete" : {
          "href" : "https://app.haveloc.com/brokerage/jobs/186"
        },
        "save" : {
          "href" : "https://app.haveloc.com/brokerage/jobs"
        },
        "all" : {
          "href" : "https://app.haveloc.com/brokerage/jobSubViews?respectConfigProp=true"
        },
        "companyLink" : {
          "href" : "https://app.haveloc.com/brokerage/companies/108"
        },
        "jobFormLink" : {
          "href" : "https://app.haveloc.com/brokerage/downloadJobForm/jobId/186"
        },
        "policy-category-link" : {
          "href" : "https://app.haveloc.com/brokerage/policyCat/4"
        }
      }
    }, {
      "id" : 212,
      "minCtc" : 2107000.0,
      "maxCtc" : 2425000.0,
      "payType" : "PER_ANNUM",
      "internWithPrePlacement" : null,
      "skillsRequired" : null,
      "jobType" : "FULL_TIME",
      "noOfRounds" : 5,
      "jobTitle" : "MathWorks - Associate/ Engineer / Senior Engineer in Engineering Development. Intern in Engineering Development.",
      "jobStatus" : "CLOSED",
      "jobPostedDate" : "2022-07-29 15:32:51",
      "jobApplyBy" : "2022-08-01 00:00:00",
      "hiringStartDate" : null,
      "location" : "Bangalore or Hyderabad",
      "duration" : null,
      "jobTag" : null,
      "workType" : "REGULAR",
      "noOfOpenings" : "25",
      "incentives" : [ ],
      "stipendType" : "BETWEEN",
      "jobStartDate" : null,
      "companyId" : 137,
      "companyName" : "MathWorks",
      "webSiteLink" : "https://in.mathworks.com/?s_tid=gn_logo",
      "imagePath" : "",
      "studentSearchEnum" : "ALL_STUDENTS_WITH_POLICY",
      "respectPlacementPolicy" : true,
      "respectJobOffer" : true,
      "isMassRecruiting" : false,
      "appliedCount" : 1157,
      "isPublished" : true,
      "createdBy" : "bhruguj",
      "createdDate" : "2022-07-29 15:32:51",
      "lastModifiedBy" : "bhruguj",
      "lastModifiedDate" : "2022-08-19 11:38:56",
      "genders" : [ ],
      "batchPassedOutYear" : [ ],
      "jobApplyTime" : "13:00:00",
      "categoryId" : 3,
      "jobStatusMap" : {
        "IN_PROGRESS" : "IN_PROGRESS",
        "CLOSED" : "CLOSED",
        "YET_TO_OPEN" : "YET_TO_OPEN"
      },
      "jobTypeMap" : {
        "INTERN" : "INTERN",
        "Internship With Pre Placement Offer" : "INTERNSHIP_WITH_FULL_TIME",
        "FULL_TIME" : "FULL_TIME",
        "CONTRACT_TO_HIRE" : "CONTRACT_TO_HIRE"
      },
      "stipendTypeMap" : {
        "Performance Based" : "PERFORMANCE_BASED",
        "Between" : "BETWEEN",
        "Unpaid" : "UNPAID",
        "Fixed" : "FIXED"
      },
      "_links" : {
        "self" : {
          "href" : "https://app.haveloc.com/brokerage/jobViews/212"
        },
        "delete" : {
          "href" : "https://app.haveloc.com/brokerage/jobs/212"
        },
        "save" : {
          "href" : "https://app.haveloc.com/brokerage/jobs"
        },
        "all" : {
          "href" : "https://app.haveloc.com/brokerage/jobSubViews?respectConfigProp=true"
        },
        "companyLink" : {
          "href" : "https://app.haveloc.com/brokerage/companies/137"
        },
        "jobFormLink" : {
          "href" : "https://app.haveloc.com/brokerage/downloadJobForm/jobId/212"
        },
        "policy-category-link" : {
          "href" : "https://app.haveloc.com/brokerage/policyCat/3"
        }
      }
    }, {
      "id" : 248,
      "minCtc" : 0.0,
      "maxCtc" : 465000.0,
      "payType" : "PER_MONTH",
      "internWithPrePlacement" : null,
      "skillsRequired" : null,
      "jobType" : "FULL_TIME",
      "noOfRounds" : null,
      "jobTitle" : "Tata Technologies FTE for 2023 ",
      "jobStatus" : "IN_PROGRESS",
      "jobPostedDate" : "2022-08-18 15:47:05",
      "jobApplyBy" : "2022-08-19 00:00:00",
      "hiringStartDate" : "2022-08-22 00:00:00",
      "location" : "Pune/Bangalore/Mumbai/",
      "duration" : null,
      "jobTag" : "Engineering",
      "workType" : "REGULAR",
      "noOfOpenings" : null,
      "incentives" : [ ],
      "stipendType" : "FIXED",
      "jobStartDate" : null,
      "companyId" : 181,
      "companyName" : "Tata Technologies",
      "webSiteLink" : "www.tatatechnologies.com",
      "imagePath" : "",
      "studentSearchEnum" : "ALL_STUDENTS_WITH_POLICY",
      "respectPlacementPolicy" : true,
      "respectJobOffer" : true,
      "isMassRecruiting" : false,
      "appliedCount" : 464,
      "isPublished" : true,
      "createdBy" : "kb_dainy",
      "createdDate" : "2022-08-18 15:47:05",
      "lastModifiedBy" : "kb_dainy",
      "lastModifiedDate" : "2022-08-18 15:47:05",
      "genders" : [ "MALE", "FEMALE" ],
      "batchPassedOutYear" : [ ],
      "jobApplyTime" : "10:00:00",
      "categoryId" : 2,
      "jobStatusMap" : {
        "IN_PROGRESS" : "IN_PROGRESS",
        "CLOSED" : "CLOSED",
        "YET_TO_OPEN" : "YET_TO_OPEN"
      },
      "jobTypeMap" : {
        "INTERN" : "INTERN",
        "Internship With Pre Placement Offer" : "INTERNSHIP_WITH_FULL_TIME",
        "FULL_TIME" : "FULL_TIME",
        "CONTRACT_TO_HIRE" : "CONTRACT_TO_HIRE"
      },
      "stipendTypeMap" : {
        "Performance Based" : "PERFORMANCE_BASED",
        "Between" : "BETWEEN",
        "Unpaid" : "UNPAID",
        "Fixed" : "FIXED"
      },
      "_links" : {
        "self" : {
          "href" : "https://app.haveloc.com/brokerage/jobViews/248"
        },
        "delete" : {
          "href" : "https://app.haveloc.com/brokerage/jobs/248"
        },
        "save" : {
          "href" : "https://app.haveloc.com/brokerage/jobs"
        },
        "all" : {
          "href" : "https://app.haveloc.com/brokerage/jobSubViews?respectConfigProp=true"
        },
        "companyLink" : {
          "href" : "https://app.haveloc.com/brokerage/companies/181"
        },
        "jobFormLink" : {
          "href" : "https://app.haveloc.com/brokerage/downloadJobForm/jobId/248"
        },
        "policy-category-link" : {
          "href" : "https://app.haveloc.com/brokerage/policyCat/2"
        }
      }
    }, {
      "id" : 247,
      "minCtc" : 0.0,
      "maxCtc" : 650000.0,
      "payType" : "PER_ANNUM",
      "internWithPrePlacement" : null,
      "skillsRequired" : null,
      "jobType" : "FULL_TIME",
      "noOfRounds" : null,
      "jobTitle" : "Nivoda  Internship cum FTE opportunity for B.Tech 2023 ",
      "jobStatus" : "IN_PROGRESS",
      "jobPostedDate" : "2022-08-18 11:53:10",
      "jobApplyBy" : "2022-08-19 00:00:00",
      "hiringStartDate" : "2022-08-22 00:00:00",
      "location" : "Bangalore",
      "duration" : null,
      "jobTag" : "Analytics",
      "workType" : "REGULAR",
      "noOfOpenings" : null,
      "incentives" : [ ],
      "stipendType" : "FIXED",
      "jobStartDate" : null,
      "companyId" : 180,
      "companyName" : "Nivoda",
      "webSiteLink" : "https://nivoda.net/",
      "imagePath" : "",
      "studentSearchEnum" : "ALL_STUDENTS_WITH_POLICY",
      "respectPlacementPolicy" : true,
      "respectJobOffer" : true,
      "isMassRecruiting" : false,
      "appliedCount" : 286,
      "isPublished" : true,
      "createdBy" : "kb_dainy",
      "createdDate" : "2022-08-18 11:53:10",
      "lastModifiedBy" : "kb_dainy",
      "lastModifiedDate" : "2022-08-18 12:35:29",
      "genders" : [ "MALE", "FEMALE" ],
      "batchPassedOutYear" : [ ],
      "jobApplyTime" : "09:00:00",
      "categoryId" : 2,
      "jobStatusMap" : {
        "IN_PROGRESS" : "IN_PROGRESS",
        "CLOSED" : "CLOSED",
        "YET_TO_OPEN" : "YET_TO_OPEN"
      },
      "jobTypeMap" : {
        "INTERN" : "INTERN",
        "Internship With Pre Placement Offer" : "INTERNSHIP_WITH_FULL_TIME",
        "FULL_TIME" : "FULL_TIME",
        "CONTRACT_TO_HIRE" : "CONTRACT_TO_HIRE"
      },
      "stipendTypeMap" : {
        "Performance Based" : "PERFORMANCE_BASED",
        "Between" : "BETWEEN",
        "Unpaid" : "UNPAID",
        "Fixed" : "FIXED"
      },
      "_links" : {
        "self" : {
          "href" : "https://app.haveloc.com/brokerage/jobViews/247"
        },
        "delete" : {
          "href" : "https://app.haveloc.com/brokerage/jobs/247"
        },
        "save" : {
          "href" : "https://app.haveloc.com/brokerage/jobs"
        },
        "all" : {
          "href" : "https://app.haveloc.com/brokerage/jobSubViews?respectConfigProp=true"
        },
        "companyLink" : {
          "href" : "https://app.haveloc.com/brokerage/companies/180"
        },
        "jobFormLink" : {
          "href" : "https://app.haveloc.com/brokerage/downloadJobForm/jobId/247"
        },
        "policy-category-link" : {
          "href" : "https://app.haveloc.com/brokerage/policyCat/2"
        }
      }
    }, {
      "id" : 239,
      "minCtc" : 0.0,
      "maxCtc" : 600000.0,
      "payType" : "PER_ANNUM",
      "internWithPrePlacement" : null,
      "skillsRequired" : null,
      "jobType" : "FULL_TIME",
      "noOfRounds" : 5,
      "jobTitle" : "ZF CVS(GET, PGET) - B.Tech,M.Tech-2023",
      "jobStatus" : "IN_PROGRESS",
      "jobPostedDate" : "2022-08-12 15:00:38",
      "jobApplyBy" : "2022-08-16 00:00:00",
      "hiringStartDate" : null,
      "location" : "PAN India",
      "duration" : null,
      "jobTag" : "Engineering",
      "workType" : "REGULAR",
      "noOfOpenings" : null,
      "incentives" : [ ],
      "stipendType" : "FIXED",
      "jobStartDate" : null,
      "companyId" : 173,
      "companyName" : "ZF Commercial Vehicle Control Systems India Limited",
      "webSiteLink" : "https://www.zf.com/",
      "imagePath" : "",
      "studentSearchEnum" : "ALL_STUDENTS_WITH_POLICY",
      "respectPlacementPolicy" : true,
      "respectJobOffer" : true,
      "isMassRecruiting" : false,
      "appliedCount" : 534,
      "isPublished" : true,
      "createdBy" : "a_anandakumar",
      "createdDate" : "2022-08-12 15:00:38",
      "lastModifiedBy" : "a_anandakumar",
      "lastModifiedDate" : "2022-08-15 10:50:50",
      "genders" : [ "MALE", "FEMALE" ],
      "batchPassedOutYear" : [ ],
      "jobApplyTime" : "15:00:00",
      "categoryId" : 2,
      "jobStatusMap" : {
        "IN_PROGRESS" : "IN_PROGRESS",
        "CLOSED" : "CLOSED",
        "YET_TO_OPEN" : "YET_TO_OPEN"
      },
      "jobTypeMap" : {
        "INTERN" : "INTERN",
        "Internship With Pre Placement Offer" : "INTERNSHIP_WITH_FULL_TIME",
        "FULL_TIME" : "FULL_TIME",
        "CONTRACT_TO_HIRE" : "CONTRACT_TO_HIRE"
      },
      "stipendTypeMap" : {
        "Performance Based" : "PERFORMANCE_BASED",
        "Between" : "BETWEEN",
        "Unpaid" : "UNPAID",
        "Fixed" : "FIXED"
      },
      "_links" : {
        "self" : {
          "href" : "https://app.haveloc.com/brokerage/jobViews/239"
        },
        "delete" : {
          "href" : "https://app.haveloc.com/brokerage/jobs/239"
        },
        "save" : {
          "href" : "https://app.haveloc.com/brokerage/jobs"
        },
        "all" : {
          "href" : "https://app.haveloc.com/brokerage/jobSubViews?respectConfigProp=true"
        },
        "companyLink" : {
          "href" : "https://app.haveloc.com/brokerage/companies/173"
        },
        "jobFormLink" : {
          "href" : "https://app.haveloc.com/brokerage/downloadJobForm/jobId/239"
        },
        "policy-category-link" : {
          "href" : "https://app.haveloc.com/brokerage/policyCat/2"
        }
      }
    }, {
      "id" : 241,
      "minCtc" : 0.0,
      "maxCtc" : 637173.0,
      "payType" : "PER_ANNUM",
      "internWithPrePlacement" : null,
      "skillsRequired" : null,
      "jobType" : "FULL_TIME",
      "noOfRounds" : null,
      "jobTitle" : "EY GDS",
      "jobStatus" : "IN_PROGRESS",
      "jobPostedDate" : "2022-08-13 14:18:06",
      "jobApplyBy" : "2022-08-15 00:00:00",
      "hiringStartDate" : "2022-08-15 00:00:00",
      "location" : "PAN INDIA",
      "duration" : null,
      "jobTag" : "Analytics",
      "workType" : "REGULAR",
      "noOfOpenings" : null,
      "incentives" : [ ],
      "stipendType" : "FIXED",
      "jobStartDate" : null,
      "companyId" : 175,
      "companyName" : "EY",
      "webSiteLink" : "ey.com",
      "imagePath" : "",
      "studentSearchEnum" : "ALL_STUDENTS_WITH_POLICY",
      "respectPlacementPolicy" : true,
      "respectJobOffer" : true,
      "isMassRecruiting" : false,
      "appliedCount" : 852,
      "isPublished" : true,
      "createdBy" : "kb_dainy",
      "createdDate" : "2022-08-13 14:18:06",
      "lastModifiedBy" : "kb_dainy",
      "lastModifiedDate" : "2022-08-14 21:44:34",
      "genders" : [ "MALE", "FEMALE" ],
      "batchPassedOutYear" : [ ],
      "jobApplyTime" : "08:00:00",
      "categoryId" : null,
      "jobStatusMap" : {
        "IN_PROGRESS" : "IN_PROGRESS",
        "CLOSED" : "CLOSED",
        "YET_TO_OPEN" : "YET_TO_OPEN"
      },
      "jobTypeMap" : {
        "INTERN" : "INTERN",
        "Internship With Pre Placement Offer" : "INTERNSHIP_WITH_FULL_TIME",
        "FULL_TIME" : "FULL_TIME",
        "CONTRACT_TO_HIRE" : "CONTRACT_TO_HIRE"
      },
      "stipendTypeMap" : {
        "Performance Based" : "PERFORMANCE_BASED",
        "Between" : "BETWEEN",
        "Unpaid" : "UNPAID",
        "Fixed" : "FIXED"
      },
      "_links" : {
        "self" : {
          "href" : "https://app.haveloc.com/brokerage/jobViews/241"
        },
        "delete" : {
          "href" : "https://app.haveloc.com/brokerage/jobs/241"
        },
        "save" : {
          "href" : "https://app.haveloc.com/brokerage/jobs"
        },
        "all" : {
          "href" : "https://app.haveloc.com/brokerage/jobSubViews?respectConfigProp=true"
        },
        "companyLink" : {
          "href" : "https://app.haveloc.com/brokerage/companies/175"
        },
        "jobFormLink" : {
          "href" : "https://app.haveloc.com/brokerage/downloadJobForm/jobId/241"
        },
        "policy-category-link" : {
          "href" : "https://app.haveloc.com/brokerage/policyCat/{id}",
          "templated" : true
        }
      }
    }, {
      "id" : 240,
      "minCtc" : 0.0,
      "maxCtc" : 600000.0,
      "payType" : "PER_ANNUM",
      "internWithPrePlacement" : null,
      "skillsRequired" : null,
      "jobType" : "FULL_TIME",
      "noOfRounds" : 2,
      "jobTitle" : "Vitesco Technologies for BTech 2023 batch",
      "jobStatus" : "IN_PROGRESS",
      "jobPostedDate" : "2022-08-12 16:19:00",
      "jobApplyBy" : "2022-08-14 00:00:00",
      "hiringStartDate" : null,
      "location" : "Bangalore",
      "duration" : null,
      "jobTag" : null,
      "workType" : "REGULAR",
      "noOfOpenings" : null,
      "incentives" : [ ],
      "stipendType" : "FIXED",
      "jobStartDate" : null,
      "companyId" : 174,
      "companyName" : "Vitesco Technologies",
      "webSiteLink" : "vitesco.com",
      "imagePath" : "",
      "studentSearchEnum" : "ALL_STUDENTS_WITH_POLICY",
      "respectPlacementPolicy" : true,
      "respectJobOffer" : true,
      "isMassRecruiting" : false,
      "appliedCount" : 288,
      "isPublished" : true,
      "createdBy" : "r_maya",
      "createdDate" : "2022-08-12 16:19:00",
      "lastModifiedBy" : "bhruguj",
      "lastModifiedDate" : "2022-08-14 12:35:03",
      "genders" : [ ],
      "batchPassedOutYear" : [ ],
      "jobApplyTime" : "15:00:00",
      "categoryId" : 2,
      "jobStatusMap" : {
        "IN_PROGRESS" : "IN_PROGRESS",
        "CLOSED" : "CLOSED",
        "YET_TO_OPEN" : "YET_TO_OPEN"
      },
      "jobTypeMap" : {
        "INTERN" : "INTERN",
        "Internship With Pre Placement Offer" : "INTERNSHIP_WITH_FULL_TIME",
        "FULL_TIME" : "FULL_TIME",
        "CONTRACT_TO_HIRE" : "CONTRACT_TO_HIRE"
      },
      "stipendTypeMap" : {
        "Performance Based" : "PERFORMANCE_BASED",
        "Between" : "BETWEEN",
        "Unpaid" : "UNPAID",
        "Fixed" : "FIXED"
      },
      "_links" : {
        "self" : {
          "href" : "https://app.haveloc.com/brokerage/jobViews/240"
        },
        "delete" : {
          "href" : "https://app.haveloc.com/brokerage/jobs/240"
        },
        "save" : {
          "href" : "https://app.haveloc.com/brokerage/jobs"
        },
        "all" : {
          "href" : "https://app.haveloc.com/brokerage/jobSubViews?respectConfigProp=true"
        },
        "companyLink" : {
          "href" : "https://app.haveloc.com/brokerage/companies/174"
        },
        "jobFormLink" : {
          "href" : "https://app.haveloc.com/brokerage/downloadJobForm/jobId/240"
        },
        "policy-category-link" : {
          "href" : "https://app.haveloc.com/brokerage/policyCat/2"
        }
      }
    }, {
      "id" : 242,
      "minCtc" : 0.0,
      "maxCtc" : 861000.0,
      "payType" : "PER_ANNUM",
      "internWithPrePlacement" : null,
      "skillsRequired" : null,
      "jobType" : "FULL_TIME",
      "noOfRounds" : 2,
      "jobTitle" : "Verizon ",
      "jobStatus" : "IN_PROGRESS",
      "jobPostedDate" : "2022-08-13 16:24:53",
      "jobApplyBy" : "2022-08-16 00:00:00",
      "hiringStartDate" : "2022-08-26 00:00:00",
      "location" : "Chennai & Hyderabad",
      "duration" : null,
      "jobTag" : null,
      "workType" : "REGULAR",
      "noOfOpenings" : null,
      "incentives" : [ ],
      "stipendType" : "FIXED",
      "jobStartDate" : null,
      "companyId" : 177,
      "companyName" : "Verizon",
      "webSiteLink" : "www.verizon.com",
      "imagePath" : "",
      "studentSearchEnum" : "ALL_STUDENTS_WITH_POLICY",
      "respectPlacementPolicy" : true,
      "respectJobOffer" : true,
      "isMassRecruiting" : false,
      "appliedCount" : 274,
      "isPublished" : true,
      "createdBy" : "r_maya",
      "createdDate" : "2022-08-13 16:24:53",
      "lastModifiedBy" : "r_maya",
      "lastModifiedDate" : "2022-08-13 16:24:53",
      "genders" : [ ],
      "batchPassedOutYear" : [ ],
      "jobApplyTime" : "10:00:00",
      "categoryId" : 4,
      "jobStatusMap" : {
        "IN_PROGRESS" : "IN_PROGRESS",
        "CLOSED" : "CLOSED",
        "YET_TO_OPEN" : "YET_TO_OPEN"
      },
      "jobTypeMap" : {
        "INTERN" : "INTERN",
        "Internship With Pre Placement Offer" : "INTERNSHIP_WITH_FULL_TIME",
        "FULL_TIME" : "FULL_TIME",
        "CONTRACT_TO_HIRE" : "CONTRACT_TO_HIRE"
      },
      "stipendTypeMap" : {
        "Performance Based" : "PERFORMANCE_BASED",
        "Between" : "BETWEEN",
        "Unpaid" : "UNPAID",
        "Fixed" : "FIXED"
      },
      "_links" : {
        "self" : {
          "href" : "https://app.haveloc.com/brokerage/jobViews/242"
        },
        "delete" : {
          "href" : "https://app.haveloc.com/brokerage/jobs/242"
        },
        "save" : {
          "href" : "https://app.haveloc.com/brokerage/jobs"
        },
        "all" : {
          "href" : "https://app.haveloc.com/brokerage/jobSubViews?respectConfigProp=true"
        },
        "companyLink" : {
          "href" : "https://app.haveloc.com/brokerage/companies/177"
        },
        "jobFormLink" : {
          "href" : "https://app.haveloc.com/brokerage/downloadJobForm/jobId/242"
        },
        "policy-category-link" : {
          "href" : "https://app.haveloc.com/brokerage/policyCat/4"
        }
      }
    }]
  },
  "_links" : {
    "first" : {
      "href" : "https://app.haveloc.com/brokerage/jobSubViews?page=0&size=20&sort=lastModifiedDate,desc"
    },
    "self" : {
      "href" : "https://app.haveloc.com/brokerage/jobSubViews{?respectConfigProp}",
      "templated" : true
    },
    "next" : {
      "href" : "https://app.haveloc.com/brokerage/jobSubViews?page=1&size=20&sort=lastModifiedDate,desc"
    },
    "last" : {
      "href" : "https://app.haveloc.com/brokerage/jobSubViews?page=3&size=20&sort=lastModifiedDate,desc"
    }
  },
  "page" : {
    "size" : 20,
    "totalElements" : 66,
    "totalPages" : 4,
    "number" : 0
  }
}
